[
  {
    "id": 1,
    "title": "IPA",
    "path": "/ipa",
    "img": "drew-farwell-9RLk3ZpulUk-unsplash.jpg"
  },
  {
    "id": 2,
    "title": "Porter",
    "path": "/porter",
    "img": "yutacar-JKMnm3CIncw-unsplash.jpg"
  },
  {
    "id": 3,
    "title": "Weizen",
    "path": "/weizen",
    "img": "louis-hansel-N_R0X4H9uD4-unsplash.jpg"
  },
  {
    "id": 4,
    "title": "Pilsner",
    "path": "/pilsner",
    "img": "elevate-1gqXSOOH5cs-unsplash.jpg"
  },
  {
    "id": 5,
    "title": "Stout",
    "path": "/stout",
    "img": "elevate-TDckk62Ag5g-unsplash.jpg"
  }
]
